/Users/upagge/IdeaProjects/java2/src/main/java/org/sadtech/java2/apartment/abstraction/Shine.java
/Users/upagge/IdeaProjects/java2/src/main/java/org/sadtech/java2/apartment/kitchen/Phone.java
/Users/upagge/IdeaProjects/java2/src/main/java/org/sadtech/java2/apartment/bathroom/WashingMachine.java
/Users/upagge/IdeaProjects/java2/src/main/java/org/sadtech/java2/apartment/kitchen/Chandelier.java
/Users/upagge/IdeaProjects/java2/src/main/java/org/sadtech/java2/apartment/kitchen/Kettle.java
/Users/upagge/IdeaProjects/java2/src/main/java/org/sadtech/java2/apartment/room/Chandelier.java
/Users/upagge/IdeaProjects/java2/src/main/java/org/sadtech/java2/apartment/corridor/Intercom.java
/Users/upagge/IdeaProjects/java2/src/main/java/org/sadtech/java2/apartment/bathroom/Lamp.java
/Users/upagge/IdeaProjects/java2/src/main/java/org/sadtech/java2/apartment/Сontroller.java
/Users/upagge/IdeaProjects/java2/src/main/java/org/sadtech/java2/Human.java
/Users/upagge/IdeaProjects/java2/src/main/java/org/sadtech/java2/apartment/corridor/Chandelier.java
/Users/upagge/IdeaProjects/java2/src/main/java/org/sadtech/java2/apartment/kitchen/Microwave.java
/Users/upagge/IdeaProjects/java2/src/main/java/org/sadtech/java2/apartment/room/WallChandelier.java
/Users/upagge/IdeaProjects/java2/src/main/java/org/sadtech/java2/apartment/kitchen/Plate.java
/Users/upagge/IdeaProjects/java2/src/main/java/org/sadtech/java2/apartment/kitchen/Fridge.java
/Users/upagge/IdeaProjects/java2/src/main/java/org/sadtech/java2/apartment/abstraction/LightingDevice.java
/Users/upagge/IdeaProjects/java2/src/main/java/org/sadtech/java2/apartment/abstraction/Device.java
/Users/upagge/IdeaProjects/java2/src/main/java/org/sadtech/java2/apartment/room/Tv.java
